[
  {"mlid":81,
    "parent_id" : 0,
    "menu_name" : "uaqs-select-menu",
    "link_path" : "http://admissions.arizona.edu",
    "link_title" : "a future student",
    "external" : 1,
    "expanded" : 0,
    "weight" : 1
  },
  {"mlid":82,
    "parent_id" : 0,
    "menu_name" : "uaqs-select-menu",
    "link_path" : "https://www.arizona.edu/students",
    "link_title" : "a current student",
    "external" : 1,
    "expanded" : 0,
    "weight" : 2
  },
  {"mlid":83,
    "parent_id" : 0,
    "menu_name" : "uaqs-select-menu",
    "link_path" : "https://www.arizona.edu/faculty-staff",
    "link_title" : "a faculty or staff member",
    "external" : 1,
    "expanded" : 0,
    "weight" : 3
  },
  {"mlid":84,
    "parent_id" : 0,
    "menu_name" : "uaqs-select-menu",
    "link_path" : "https://www.arizona.edu/parents-visitors",
    "link_title" : "a parent or visitor",
    "external" : 1,
    "expanded" : 0,
    "weight" : 4
  },
  {"mlid":85,
    "parent_id" : 0,
    "menu_name" : "uaqs-select-menu",
    "link_path" : "https://www.arizona.edu/alumni-donors",
    "link_title" : "an alumni",
    "external" : 1,
    "expanded" : 0,
    "weight" : 5
  },
  {"mlid":86,
    "parent_id" : 0,
    "menu_name" : "uaqs-select-menu",
    "link_path" : "http://www.uafoundation.org",
    "link_title" : "a donor",
    "external" : 1,
    "expanded" : 0,
    "weight" : 6
  },
  {"mlid":87,
    "parent_id" : 0,
    "menu_name" : "uaqs-select-menu",
    "link_path" : "https://www.arizona.edu/corporations-businesses",
    "link_title" : "a business or partner",
    "external" : 1,
    "expanded" : 0,
    "weight" : 7
  }
]
